[
  {
    "name": "GIS Hub Kawal COVID-19",
    "link": "https://kcov.id/map"
  },
  {
    "name": "Peta Kasus COVID-19 di Indonesia",
    "link": "https://kcov.id/petapositif"
  },
  {
    "name": "Daftar Kasus COVID-19 di Indonesia",
    "link": "https://kcov.id/daftarpositif"
  },
  {
    "name": "Statistik Harian Kasus COVID-19 di Indonesia",
    "link": "https://kcov.id/statistik-harian"
  },
  {
    "name": "Kompilasi TurnBackHoax COVID-19",
    "link": "https://kcov.id/mafindokompilasihoax"
  },
  {
    "name": "Peta Rumah Sakit Rujukan di Indonesia",
    "link": "https://kawalcovid19.maps.arcgis.com/apps/webappviewer/index.html?id=61f29ce6c77549daa5b3de8a28a3a8e0"
  },
  {
    "name": "WHO",
    "link": "https://www.who.int/emergencies/diseases/novel-coronavirus-2019"
  },
  {
    "name": "UNICEF Indonesia",
    "link": "https://www.unicef.org/indonesia/id/coronavirus"
  },
  {
    "name": "Infeksi Emerging (Kemkes)",
    "link": "http://infeksiemerging.kemkes.go.id/"
  },
  {
    "name": "Peta Kasus Global COVID-19",
    "link": "https://arcg.is/0fHmTX"
  },
  {
    "name": "Peta Kasus Global COVID-19 (versi mobile)",
    "link": "https://arcg.is/1DPOWm0"
  },
  {
    "name": "Kominfo - Kumpulan Hoaks Terkait Virus Corona",
    "link": "https://kominfo.go.id/content/all/virus_corona"
  },
  {
    "name": "Pusat Informasi & Koordinasi COVID-19 Jawa Barat",
    "link": "https://pikobar.jabarprov.go.id/"
  },
  {
    "name": "Jakarta Tanggap COVID-19",
    "link": "https://corona.jakarta.go.id/"
  }
]
